<?xml version="1.0" encoding="utf-8"?>
<!-- Generator: Adobe Illustrator 26.1.0, SVG Export Plug-In . SVG Version: 6.00 Build 0)  -->
<svg version="1.1" id="Layer_1" xmlns="http://www.w3.org/2000/svg" xmlns:xlink="http://www.w3.org/1999/xlink" x="0px" y="0px"
	 viewBox="0 0 230 123" style="enable-background:new 0 0 230 123;" xml:space="preserve">
<style type="text/css">
	.st0{fill:#CACACA;}
</style>
<g>
	<g>
		<path class="st0" d="M184.49,1.26L184.49,1.26L184.49,1.26 M213.28,2.76c7.09,0,12.87,5.77,12.87,12.87v91.75
			c0,7.09-5.77,12.87-12.87,12.87h-28.93c-0.71-3.88-4.12-6.84-8.2-6.84s-7.49,2.95-8.2,6.84H16.72c-7.09,0-12.87-5.77-12.87-12.87
			V15.62c0-7.09,5.77-12.87,12.87-12.87h151.23c0.71,3.88,4.12,6.84,8.2,6.84s7.49-2.95,8.2-6.84H213.28 M213.28,1.26h-30.3
			c0,3.78-3.06,6.84-6.84,6.84c-3.78,0-6.84-3.06-6.84-6.84H16.72c-7.93,0-14.37,6.43-14.37,14.37v91.75
			c0,7.93,6.43,14.37,14.37,14.37h152.6c0-3.78,3.06-6.84,6.84-6.84c3.78,0,6.84,3.06,6.84,6.84h30.3c7.93,0,14.37-6.43,14.37-14.37
			V15.62C227.65,7.69,221.22,1.26,213.28,1.26L213.28,1.26z"/>
	</g>
	<g>
		<path class="st0" d="M176.15,22.5c-0.41,0-0.75-0.34-0.75-0.75v-4c0-0.41,0.34-0.75,0.75-0.75s0.75,0.34,0.75,0.75v4
			C176.9,22.16,176.56,22.5,176.15,22.5z"/>
		<path class="st0" d="M176.15,93.17c-0.41,0-0.75-0.34-0.75-0.75v-8.83c0-0.41,0.34-0.75,0.75-0.75s0.75,0.34,0.75,0.75v8.83
			C176.9,92.83,176.56,93.17,176.15,93.17z M176.15,75.5c-0.41,0-0.75-0.34-0.75-0.75v-8.83c0-0.41,0.34-0.75,0.75-0.75
			s0.75,0.34,0.75,0.75v8.83C176.9,75.17,176.56,75.5,176.15,75.5z M176.15,57.83c-0.41,0-0.75-0.34-0.75-0.75v-8.83
			c0-0.41,0.34-0.75,0.75-0.75s0.75,0.34,0.75,0.75v8.83C176.9,57.5,176.56,57.83,176.15,57.83z M176.15,40.16
			c-0.41,0-0.75-0.34-0.75-0.75v-8.83c0-0.41,0.34-0.75,0.75-0.75s0.75,0.34,0.75,0.75v8.83C176.9,39.83,176.56,40.16,176.15,40.16z
			"/>
		<path class="st0" d="M176.15,106c-0.41,0-0.75-0.34-0.75-0.75v-4c0-0.41,0.34-0.75,0.75-0.75s0.75,0.34,0.75,0.75v4
			C176.9,105.67,176.56,106,176.15,106z"/>
	</g>
</g>
</svg>
