<?xml version="1.0" encoding="utf-8"?>
<!-- Generator: Adobe Illustrator 26.1.0, SVG Export Plug-In . SVG Version: 6.00 Build 0)  -->
<svg version="1.1" id="Layer_1" xmlns="http://www.w3.org/2000/svg" xmlns:xlink="http://www.w3.org/1999/xlink" x="0px" y="0px"
	 viewBox="0 0 40 40" style="enable-background:new 0 0 40 40;" xml:space="preserve">
<style type="text/css">
	.st0{fill:#FFFFFF;}
</style>
<g>
	<path class="st0" d="M23.69,2.6c-0.45-0.23-1-0.19-1.41,0.11L11.37,10.6H2.36C1.61,10.6,1,11.2,1,11.95v16.09
		c0,0.75,0.61,1.36,1.36,1.36h9.01l10.91,7.89c0.24,0.17,0.51,0.26,0.8,0.26c0.21,0,0.42-0.05,0.62-0.15
		c0.45-0.23,0.74-0.7,0.74-1.21V3.81C24.43,3.3,24.15,2.83,23.69,2.6z M21.72,33.53l-9.11-6.59c-0.23-0.17-0.51-0.26-0.8-0.26h-8.1
		V13.31h8.1c0.29,0,0.56-0.09,0.8-0.26l9.11-6.59V33.53z"/>
	<path class="st0" d="M27.88,9.08c-0.72-0.19-1.47,0.24-1.66,0.96c-0.19,0.72,0.24,1.47,0.96,1.66c3.91,1.04,6.64,4.6,6.64,8.64
		c0,4.04-2.73,7.59-6.64,8.64c-0.72,0.19-1.15,0.94-0.96,1.66c0.16,0.61,0.71,1.01,1.31,1.01c0.12,0,0.23-0.02,0.35-0.05
		c5.09-1.36,8.65-5.99,8.65-11.26C36.53,15.07,32.98,10.44,27.88,9.08z"/>
	<path class="st0" d="M30.7,20.34c0-2.66-1.6-5-4.08-5.97c-0.7-0.27-1.49,0.07-1.76,0.77c-0.27,0.7,0.07,1.49,0.77,1.76
		c1.43,0.56,2.35,1.91,2.35,3.45c0,1.53-0.92,2.88-2.35,3.45c-0.7,0.27-1.04,1.06-0.77,1.76c0.21,0.53,0.72,0.86,1.26,0.86
		c0.16,0,0.33-0.03,0.5-0.09C29.1,25.34,30.7,22.99,30.7,20.34z"/>
</g>
</svg>
