<?xml version="1.0" encoding="utf-8"?>
<!-- Generator: Adobe Illustrator 26.1.0, SVG Export Plug-In . SVG Version: 6.00 Build 0)  -->
<svg version="1.1" id="Layer_1" xmlns="http://www.w3.org/2000/svg" xmlns:xlink="http://www.w3.org/1999/xlink" x="0px" y="0px"
	 viewBox="0 0 40 40" style="enable-background:new 0 0 40 40;" xml:space="preserve">
<style type="text/css">
	.st0{fill:#FFFFFF;}
</style>
<g>
	<path class="st0" d="M23.04,18.6c0.33-1.25-0.41-2.54-1.66-2.87s-2.54,0.41-2.87,1.67c-0.33,1.25,0.41,2.54,1.66,2.87
		C21.41,20.6,22.7,19.85,23.04,18.6z M19.43,17.64c0.2-0.74,0.95-1.17,1.69-0.98c0.74,0.2,1.17,0.95,0.98,1.69
		c-0.2,0.74-0.95,1.17-1.69,0.98S19.24,18.38,19.43,17.64z"/>
	<path class="st0" d="M24.41,20.98c-1.25-0.33-2.54,0.41-2.87,1.66c-0.33,1.25,0.41,2.54,1.66,2.87c1.25,0.33,2.54-0.41,2.87-1.67
		C26.41,22.6,25.66,21.31,24.41,20.98z M23.45,24.58c-0.74-0.2-1.17-0.95-0.98-1.69c0.2-0.74,0.95-1.17,1.69-0.98
		c0.74,0.2,1.17,0.95,0.98,1.69C24.94,24.34,24.19,24.78,23.45,24.58z"/>
	<path class="st0" d="M30.9,21.47c0.26,0.07,0.52-0.08,0.59-0.34l0.96-3.62c0.23-0.87-0.29-1.77-1.16-2l-13.88-3.7l-0.94-0.25
		l-4.05-1.08c-0.87-0.23-1.77,0.29-2,1.16l-0.96,3.62c-0.07,0.26,0.08,0.52,0.34,0.59c0.74,0.2,1.17,0.95,0.98,1.69
		c-0.2,0.74-0.95,1.17-1.69,0.98c-0.26-0.07-0.52,0.08-0.59,0.34l-0.96,3.62c-0.23,0.87,0.29,1.77,1.16,2l18.86,5.02
		c0.87,0.23,1.77-0.29,2-1.16l0.96-3.62c0.07-0.26-0.08-0.52-0.34-0.59c-0.74-0.2-1.17-0.95-0.98-1.69
		C29.4,21.72,30.16,21.28,30.9,21.47z M29.48,24.9l-0.85,3.2c-0.09,0.35-0.46,0.57-0.81,0.47l-13.88-3.7l0.28-1.04l-0.94-0.25
		L13,24.63l-4.05-1.08c-0.35-0.09-0.57-0.46-0.47-0.81l0.85-3.2c1.09,0.06,2.1-0.65,2.39-1.74c0.29-1.09-0.24-2.21-1.21-2.7
		l0.85-3.2c0.09-0.35,0.46-0.57,0.81-0.47l4.05,1.08l-0.25,0.94l0.94,0.25l0.25-0.94l13.88,3.7c0.35,0.09,0.57,0.46,0.47,0.81
		l-0.85,3.2c-1.09-0.06-2.1,0.65-2.39,1.74C27.98,23.29,28.51,24.41,29.48,24.9z"/>
	
		<rect x="13.8" y="18.16" transform="matrix(0.2574 -0.9663 0.9663 0.2574 -6.7999 28.4345)" class="st0" width="2.61" height="0.97"/>
	
		<rect x="12.95" y="21.32" transform="matrix(0.2574 -0.9663 0.9663 0.2574 -10.4869 29.9713)" class="st0" width="2.61" height="0.97"/>
	
		<rect x="14.64" y="14.99" transform="matrix(0.2574 -0.9663 0.9663 0.2574 -3.113 26.8978)" class="st0" width="2.61" height="0.97"/>
	<path class="st0" d="M26.18,18.35c-0.13-0.23-0.43-0.31-0.66-0.17l-6.96,4.05c-0.23,0.13-0.31,0.43-0.17,0.66
		c0.07,0.12,0.17,0.19,0.29,0.22c0.12,0.03,0.25,0.02,0.37-0.05l6.96-4.05C26.24,18.88,26.32,18.58,26.18,18.35z"/>
</g>
</svg>
