<?xml version="1.0" encoding="utf-8"?>
<!-- Generator: Adobe Illustrator 26.1.0, SVG Export Plug-In . SVG Version: 6.00 Build 0)  -->
<svg version="1.1" id="Layer_1" xmlns="http://www.w3.org/2000/svg" xmlns:xlink="http://www.w3.org/1999/xlink" x="0px" y="0px"
	 viewBox="0 0 60 60" style="enable-background:new 0 0 60 60;" xml:space="preserve">
<style type="text/css">
	.st0{fill:#5EC4B7;}
</style>
<g>
	<path class="st0" d="M105.48,47.29H87.37l-2.52,8.52H68.57L87.97,4.2h17.4l19.39,51.61h-16.7L105.48,47.29z M102.17,36.13
		l-5.7-18.55l-5.64,18.55H102.17z"/>
</g>
<path class="st0" d="M44.17,50.79c-2.01,1.51-4.36,2.68-7.04,3.52h-0.17c-2.51,0.84-5.2,1.17-8.21,1.17c-0.17,0-0.17,0-0.34,0l0,0
	c-0.17,0-0.17,0-0.34,0c-3.86,0-7.38-0.84-10.73-2.18h0.17c-3.35-1.34-6.04-3.35-8.38-5.7l0,0c-2.35-2.35-4.19-5.2-5.36-8.21v-0.17
	c-1.17-2.68-1.84-6.2-1.84-9.72v-0.17l0,0v-0.17V29c0-3.69,0.67-7.04,2.01-10.23v0.17c1.34-3.35,3.19-6.04,5.53-8.38l0,0
	c4.86-4.86,11.57-7.88,18.94-7.88c0.17,0,0.34,0,0.34,0l0,0c0.17,0,0.17,0,0.34,0c3.86,0,7.38,0.84,10.73,2.18h-0.17
	c3.35,1.34,6.04,3.35,8.38,5.7l0,0c2.35,2.35,4.19,5.2,5.36,8.21v0.17c1.17,3.02,2.01,6.37,2.01,10.06v0.17l0,0v0.17c0,0,0,0,0,0.17
	c0,3.02-0.5,5.87-1.34,8.38v-0.17c-1.01,2.85-2.18,5.2-3.86,7.38l0,0l5.87,5.03l-5.7,6.2L44.17,50.79z M28.75,47.44
	C28.92,47.44,28.92,47.44,28.75,47.44c1.84,0,3.35-0.17,4.86-0.67h-0.17c1.51-0.5,2.85-1.01,4.02-1.84l0,0l-8.72-7.54l5.7-6.54
	l8.88,8.05c1.68-2.51,2.68-5.7,2.68-9.05c0-0.17,0-0.34,0-0.5l0,0v-0.17c0,0,0,0,0-0.17c0-2.51-0.5-4.86-1.34-7.04v0.17
	c-0.84-2.18-2.01-4.19-3.52-5.87l0,0c-1.51-1.68-3.35-3.02-5.36-3.86h-0.17c-2.01-1.01-4.36-1.51-6.87-1.51h-0.17l0,0h-0.17
	c-2.51,0-4.69,0.5-6.87,1.51h0.17c-2.18,1.01-3.86,2.18-5.36,3.86l0,0c-1.51,1.68-2.68,3.52-3.52,5.7v0.17
	c-0.84,2.01-1.34,4.36-1.34,6.87v0.17l0,0v0.17c0,0,0,0,0,0.17c0,2.51,0.5,4.86,1.34,7.04v-0.17c0.84,2.18,2.01,4.19,3.52,5.87l0,0
	c1.51,1.68,3.35,3.02,5.36,3.86h0.17c2.01,1.01,4.36,1.51,6.87,1.51C28.75,47.44,28.75,47.44,28.75,47.44L28.75,47.44L28.75,47.44z"
	/>
</svg>
