<?xml version="1.0" encoding="utf-8"?>
<!-- Generator: Adobe Illustrator 26.1.0, SVG Export Plug-In . SVG Version: 6.00 Build 0)  -->
<svg version="1.1" id="Layer_1" xmlns="http://www.w3.org/2000/svg" xmlns:xlink="http://www.w3.org/1999/xlink" x="0px" y="0px"
	 viewBox="0 0 40 40" style="enable-background:new 0 0 40 40;" xml:space="preserve">
<style type="text/css">
	.st0{fill:#FFFFFF;}
</style>
<path class="st0" d="M36.35,3.65L36.35,3.65c-0.98-0.98-2.56-0.98-3.54,0L20,16.46L7.18,3.65c-0.98-0.98-2.56-0.98-3.54,0l0,0
	c-0.98,0.98-0.98,2.56,0,3.54L16.46,20L3.65,32.82c-0.98,0.98-0.98,2.56,0,3.54h0c0.98,0.98,2.56,0.98,3.54,0L20,23.54l12.82,12.82
	c0.98,0.98,2.56,0.98,3.54,0l0,0c0.98-0.98,0.98-2.56,0-3.54L23.54,20L36.35,7.18C37.33,6.21,37.33,4.62,36.35,3.65z"/>
</svg>
