<?xml version="1.0" encoding="utf-8"?>
<!-- Generator: Adobe Illustrator 26.1.0, SVG Export Plug-In . SVG Version: 6.00 Build 0)  -->
<svg version="1.1" id="Layer_1" xmlns="http://www.w3.org/2000/svg" xmlns:xlink="http://www.w3.org/1999/xlink" x="0px" y="0px"
	 viewBox="0 0 40 40" style="enable-background:new 0 0 40 40;" xml:space="preserve">
<style type="text/css">
	.st0{fill:#FFFFFF;}
</style>
<path class="st0" d="M21.89,37.11c-0.23,0-0.46-0.04-0.68-0.14c-0.67-0.28-1.1-0.92-1.1-1.64v-7.34H9.95
	c-2.97,0-5.39,2.42-5.39,5.39c0,0.98-0.8,1.78-1.78,1.78S1,34.36,1,33.38V31.4c0-10.92,8.42-19.91,19.11-20.82V4.67
	c0-0.72,0.43-1.37,1.1-1.64c0.67-0.28,1.43-0.12,1.94,0.39l15.33,15.33C38.81,19.08,39,19.53,39,20c0,0.47-0.19,0.92-0.52,1.26
	L23.15,36.59C22.81,36.93,22.35,37.11,21.89,37.11z M9.95,24.43h11.94c0.98,0,1.78,0.8,1.78,1.78v4.82L34.7,20L23.67,8.97v3.32
	c0,0.98-0.8,1.78-1.78,1.78c-7.52,0-13.93,4.81-16.33,11.51C6.86,24.85,8.36,24.43,9.95,24.43z"/>
</svg>
